{
    "/js/manifest.js": "/js/manifest.js?id=6a4eb117ddc7ca47286f",
    "/js/manifest.js.map": "/js/manifest.js.map?id=18208b03300030b28e8a",
    "/js/vendor.js": "/js/vendor.js?id=c261a88a61f336927dfd",
    "/js/vendor.js.map": "/js/vendor.js.map?id=9002fe690ee0b2f2a5d9",
    "/js/app.js": "/js/app.js?id=5318666b533c7de3b7e8",
    "/css/app.css": "/css/app.css?id=257d851ddbee2d5b70a3",
    "/css/print.css": "/css/print.css?id=f29325c57cecc58d3fe5",
    "/css/vendor.css": "/css/vendor.css?id=bc7f50cb0a0c5a8916e5",
    "/css/colorpicker.css": "/css/colorpicker.css?id=32ea5861131f9c93c8da",
    "/css/report.css": "/css/report.css?id=8617543156f7b9d075da",
    "/js/app.js.map": "/js/app.js.map?id=12fa339b69f75daae31b",
    "/js/colorpicker.js": "/js/colorpicker.js?id=35061fcf08da1edd0c02",
    "/js/colorpicker.js.map": "/js/colorpicker.js.map?id=18d6be47879d937dfabd",
    "/js/dashboard.js": "/js/dashboard.js?id=0227dde8345c56230e2e",
    "/js/dashboard.js.map": "/js/dashboard.js.map?id=7a3779a7ec0721d40f91",
    "/js/site-dashboard.js": "/js/site-dashboard.js?id=ebaf9cb0643dfe55d2f7",
    "/js/site-dashboard.js.map": "/js/site-dashboard.js.map?id=856a9c127c1f188973de",
    "/js/theme.js": "/js/theme.js?id=b60f948297369b75b774",
    "/js/theme.js.map": "/js/theme.js.map?id=d9633725ff0cf43443c7",
    "/css/theme.css": "/css/theme.css?id=70c46e4a90baa1844761",
    "/css/site-dashboard.css": "/css/site-dashboard.css?id=b39b6eef960d3347ba5c",
    "/css/pace.css": "/css/pace.css?id=845667c06fe1e5ce66a2",
    "/js/editor.js": "/js/editor.js?id=5bfd046765d586701ae5",
    "/js/pace.js": "/js/pace.js?id=bec9756a77ef8bc25d88"
}
